Library\Bee\artifacts\mvdfrm\UnityEditor.UI.ref.dll_E2A091BC59174F16.mvfrm
Library\Bee\artifacts\mvdfrm\UnityEngine.UI.ref.dll_9F0668175F397781.mvfrm
Library\Bee\artifacts\mvdfrm\UnityEditor.Graphs.dll_9C1970EC1A177BB9.mvfrm
Library\Bee\artifacts\mvdfrm\UnityEditor.CoreModule.dll_7330B5E1EAD23887.mvfrm
Library\Bee\artifacts\mvdfrm\UnityEditor.DeviceSimulatorModule.dll_6EAF0F14F46A8CEA.mvfrm
Library\Bee\artifacts\mvdfrm\UnityEditor.DiagnosticsModule.dll_DA6C0088ACB674B8.mvfrm
Library\Bee\artifacts\mvdfrm\UnityEditor.dll_A08C9F5419A36A5E.mvfrm
Library\Bee\artifacts\mvdfrm\UnityEditor.GraphViewModule.dll_AB85EDD6E666318F.mvfrm
Library\Bee\artifacts\mvdfrm\UnityEditor.PackageManagerUIModule.dll_92BEF4878CD9F323.mvfrm
Library\Bee\artifacts\mvdfrm\UnityEditor.QuickSearchModule.dll_657B8196058D7111.mvfrm
Library\Bee\artifacts\mvdfrm\UnityEditor.SceneTemplateModule.dll_0ECF1C027757EBB2.mvfrm
Library\Bee\artifacts\mvdfrm\UnityEditor.TextCoreFontEngineModule.dll_5A48917F586FA625.mvfrm
Library\Bee\artifacts\mvdfrm\UnityEditor.TextCoreTextEngineModule.dll_A230C7F0E7F35F43.mvfrm
Library\Bee\artifacts\mvdfrm\UnityEditor.UIBuilderModule.dll_000E9AF3591EAAC3.mvfrm
Library\Bee\artifacts\mvdfrm\UnityEditor.UIElementsModule.dll_15CDA662C1D01063.mvfrm
Library\Bee\artifacts\mvdfrm\UnityEditor.UIElementsSamplesModule.dll_B69888466529C83A.mvfrm
Library\Bee\artifacts\mvdfrm\UnityEditor.UIServiceModule.dll_3900AC564255FADD.mvfrm
Library\Bee\artifacts\mvdfrm\UnityEditor.UnityConnectModule.dll_16567801CB042ABD.mvfrm
Library\Bee\artifacts\mvdfrm\UnityEngine.AccessibilityModule.dll_4174879977CE134F.mvfrm
Library\Bee\artifacts\mvdfrm\UnityEngine.AIModule.dll_BA4555D04FB5BBFB.mvfrm
Library\Bee\artifacts\mvdfrm\UnityEngine.AndroidJNIModule.dll_94168F360AEF7F39.mvfrm
Library\Bee\artifacts\mvdfrm\UnityEngine.AnimationModule.dll_7A0B69FFC0C30635.mvfrm
Library\Bee\artifacts\mvdfrm\UnityEngine.ARModule.dll_73B81AD3ACD31AC4.mvfrm
Library\Bee\artifacts\mvdfrm\UnityEngine.AssetBundleModule.dll_A964B48767F42603.mvfrm
Library\Bee\artifacts\mvdfrm\UnityEngine.AudioModule.dll_3E15AE86AB1451E7.mvfrm
Library\Bee\artifacts\mvdfrm\UnityEngine.ClothModule.dll_A4FE0B81853130CB.mvfrm
Library\Bee\artifacts\mvdfrm\UnityEngine.ClusterInputModule.dll_95F2ED177C8BFD83.mvfrm
Library\Bee\artifacts\mvdfrm\UnityEngine.ClusterRendererModule.dll_745BD18664259A6E.mvfrm
Library\Bee\artifacts\mvdfrm\UnityEngine.CoreModule.dll_9651893492D7A3B2.mvfrm
Library\Bee\artifacts\mvdfrm\UnityEngine.CrashReportingModule.dll_917F5E2794407A8A.mvfrm
Library\Bee\artifacts\mvdfrm\UnityEngine.DirectorModule.dll_01E3A92F28484E4F.mvfrm
Library\Bee\artifacts\mvdfrm\UnityEngine.dll_D330E62C7816F743.mvfrm
Library\Bee\artifacts\mvdfrm\UnityEngine.DSPGraphModule.dll_07350A989AA91F70.mvfrm
Library\Bee\artifacts\mvdfrm\UnityEngine.GameCenterModule.dll_BE63D950D130702A.mvfrm
Library\Bee\artifacts\mvdfrm\UnityEngine.GIModule.dll_52819EDDEB64A415.mvfrm
Library\Bee\artifacts\mvdfrm\UnityEngine.GridModule.dll_73C2A522AB2C39A9.mvfrm
Library\Bee\artifacts\mvdfrm\UnityEngine.HotReloadModule.dll_FB5428059BF621B7.mvfrm
Library\Bee\artifacts\mvdfrm\UnityEngine.ImageConversionModule.dll_E04DCF36E64A5262.mvfrm
Library\Bee\artifacts\mvdfrm\UnityEngine.IMGUIModule.dll_76754DED7145E5C8.mvfrm
Library\Bee\artifacts\mvdfrm\UnityEngine.InputLegacyModule.dll_3AA9CFA5FFE5DBF4.mvfrm
Library\Bee\artifacts\mvdfrm\UnityEngine.InputModule.dll_A48B7637214C768B.mvfrm
Library\Bee\artifacts\mvdfrm\UnityEngine.JSONSerializeModule.dll_A18C10D5770973D9.mvfrm
Library\Bee\artifacts\mvdfrm\UnityEngine.LocalizationModule.dll_D43FB76A1407F07C.mvfrm
Library\Bee\artifacts\mvdfrm\UnityEngine.ParticleSystemModule.dll_E491A77402520618.mvfrm
Library\Bee\artifacts\mvdfrm\UnityEngine.PerformanceReportingModule.dll_4AE346ABB67B6A71.mvfrm
Library\Bee\artifacts\mvdfrm\UnityEngine.Physics2DModule.dll_C6B159F061BFFDCA.mvfrm
Library\Bee\artifacts\mvdfrm\UnityEngine.PhysicsModule.dll_3C109042E69D4F98.mvfrm
Library\Bee\artifacts\mvdfrm\UnityEngine.ProfilerModule.dll_3429E265C1A1D55C.mvfrm
Library\Bee\artifacts\mvdfrm\UnityEngine.RuntimeInitializeOnLoadManagerInitializerModule.dll_8FDAD32783D80293.mvfrm
Library\Bee\artifacts\mvdfrm\UnityEngine.ScreenCaptureModule.dll_BB73BE5A8B75A03B.mvfrm
Library\Bee\artifacts\mvdfrm\UnityEngine.SharedInternalsModule.dll_645F0E0C5D784DB2.mvfrm
Library\Bee\artifacts\mvdfrm\UnityEngine.SpriteMaskModule.dll_A7904BE0F2A005A4.mvfrm
Library\Bee\artifacts\mvdfrm\UnityEngine.SpriteShapeModule.dll_C2C5E1E21D965E0D.mvfrm
Library\Bee\artifacts\mvdfrm\UnityEngine.StreamingModule.dll_2EA05750104ABD73.mvfrm
Library\Bee\artifacts\mvdfrm\UnityEngine.SubstanceModule.dll_0B4B6B995B9DBB81.mvfrm
Library\Bee\artifacts\mvdfrm\UnityEngine.SubsystemsModule.dll_123DB242C0E7EDB7.mvfrm
Library\Bee\artifacts\mvdfrm\UnityEngine.TerrainModule.dll_56570BB1BC5B9886.mvfrm
Library\Bee\artifacts\mvdfrm\UnityEngine.TerrainPhysicsModule.dll_E50C50471B9500A5.mvfrm
Library\Bee\artifacts\mvdfrm\UnityEngine.TextCoreFontEngineModule.dll_D8A80CD26B6D64F0.mvfrm
Library\Bee\artifacts\mvdfrm\UnityEngine.TextCoreTextEngineModule.dll_20904343FAF11E0E.mvfrm
Library\Bee\artifacts\mvdfrm\UnityEngine.TextRenderingModule.dll_E4B3306542AD2030.mvfrm
Library\Bee\artifacts\mvdfrm\UnityEngine.TilemapModule.dll_F5537332D418798F.mvfrm
Library\Bee\artifacts\mvdfrm\UnityEngine.TLSModule.dll_678D2E163EB5FA6C.mvfrm
Library\Bee\artifacts\mvdfrm\UnityEngine.UIElementsModule.dll_167C13AAC41429AE.mvfrm
Library\Bee\artifacts\mvdfrm\UnityEngine.UIElementsNativeModule.dll_DD38A91CFE526345.mvfrm
Library\Bee\artifacts\mvdfrm\UnityEngine.UIModule.dll_B5B8F3FDABFCC1A7.mvfrm
Library\Bee\artifacts\mvdfrm\UnityEngine.UmbraModule.dll_B8EA5A9F383AFD5A.mvfrm
Library\Bee\artifacts\mvdfrm\UnityEngine.UNETModule.dll_28F7D11DDFE6992B.mvfrm
Library\Bee\artifacts\mvdfrm\UnityEngine.UnityAnalyticsModule.dll_0431183DAE795814.mvfrm
Library\Bee\artifacts\mvdfrm\UnityEngine.UnityConnectModule.dll_03B5FC10C58C2B68.mvfrm
Library\Bee\artifacts\mvdfrm\UnityEngine.UnityCurlModule.dll_AD280B3130D6F822.mvfrm
Library\Bee\artifacts\mvdfrm\UnityEngine.UnityTestProtocolModule.dll_725B3E38BF251D90.mvfrm
Library\Bee\artifacts\mvdfrm\UnityEngine.UnityWebRequestAssetBundleModule.dll_93E645CFAF1169E5.mvfrm
Library\Bee\artifacts\mvdfrm\UnityEngine.UnityWebRequestAudioModule.dll_C2DF9A8A3CE63509.mvfrm
Library\Bee\artifacts\mvdfrm\UnityEngine.UnityWebRequestModule.dll_F1ECD6E0F13EECE1.mvfrm
Library\Bee\artifacts\mvdfrm\UnityEngine.UnityWebRequestTextureModule.dll_0CDA6E25B596B5FE.mvfrm
Library\Bee\artifacts\mvdfrm\UnityEngine.UnityWebRequestWWWModule.dll_EB52889FEAB0DA7A.mvfrm
Library\Bee\artifacts\mvdfrm\UnityEngine.VehiclesModule.dll_79A6A2AEA2721DEA.mvfrm
Library\Bee\artifacts\mvdfrm\UnityEngine.VFXModule.dll_E86BC685152363D9.mvfrm
Library\Bee\artifacts\mvdfrm\UnityEngine.VideoModule.dll_631F32F16DA66D8C.mvfrm
Library\Bee\artifacts\mvdfrm\UnityEngine.VirtualTexturingModule.dll_01C55D8BD700E3D0.mvfrm
Library\Bee\artifacts\mvdfrm\UnityEngine.VRModule.dll_088B1A834DB7471F.mvfrm
Library\Bee\artifacts\mvdfrm\UnityEngine.WindModule.dll_0CA0645D240E221B.mvfrm
Library\Bee\artifacts\mvdfrm\UnityEngine.XRModule.dll_3B49DD87D6F1947D.mvfrm
Library\Bee\artifacts\mvdfrm\UnityEditor.WindowsStandalone.Extensions.dll_BF0310BB40D29089.mvfrm