%YAML 1.1
%TAG !u! tag:unity3d.com,2011:
--- !u!162 &1
EditorUserSettings:
  m_ObjectHideFlags: 0
  serializedVersion: 4
  m_ConfigSettings:
    RecentlyUsedSceneGuid-0:
      value: 520504055d060f0d0958542344255b4447151d29752a71337d701b6ae4b73769
      flags: 0
    RecentlyUsedSceneGuid-1:
      value: 5557515507570c0c5d5a5e7341720a44154f1e7c7b7a25627e784d30e3b1306e
      flags: 0
    RecentlyUsedSceneGuid-2:
      value: 0101065101510d0a5f5f0e70137a5c44444e4f782d707535757d4966bab3603c
      flags: 0
    RecentlyUsedSceneGuid-3:
      value: 5405065152040d5a5a5b587012770a4445164c7c2e7a72322c794866b5b5663c
      flags: 0
    RecentlyUsedSceneGuid-4:
      value: 5a5757560101590a5d0c0e24427b5d44434e4c7a7b7a23677f2b4565b7b5353a
      flags: 0
    vcSharedLogLevel:
      value: 0d5e400f0650
      flags: 0
  m_VCAutomaticAdd: 1
  m_VCDebugCom: 0
  m_VCDebugCmd: 0
  m_VCDebugOut: 0
  m_SemanticMergeMode: 2
  m_DesiredImportWorkerCount: 1
  m_StandbyImportWorkerCount: 1
  m_IdleImportWorkerShutdownDelay: 60000
  m_VCShowFailedCheckout: 1
  m_VCOverwriteFailedCheckoutAssets: 1
  m_VCProjectOverlayIcons: 1
  m_VCHierarchyOverlayIcons: 1
  m_VCOtherOverlayIcons: 1
  m_VCAllowAsyncUpdate: 0
  m_ArtifactGarbageCollection: 1
